aluF/simulation/qsim/ALU.msim.vcd
$comment
	File created using the following command:
		vcd file ALU.msim.vcd -direction
$end
$date
	Thu Sep 20 19:09:10 2018
$end
$version
	ModelSim Version 10.1d
$end
$timescale
	1ps
$end
$scope module ALU_vlg_vec_tst $end
$var reg 4 ! a [3:0] $end
$var reg 4 " b [3:0] $end
$var reg 1 # cin $end
$var reg 2 $ s [1:0] $end
$var reg 1 % s1 $end
$var wire 1 & cout $end
$var wire 1 ' f [4] $end
$var wire 1 ( f [3] $end
$var wire 1 ) f [2] $end
$var wire 1 * f [1] $end
$var wire 1 + f [0] $end
$var wire 1 , sampler $end
$scope module i1 $end
$var wire 1 - gnd $end
$var wire 1 . vcc $end
$var wire 1 / unknown $end
$var tri1 1 0 devclrn $end
$var tri1 1 1 devpor $end
$var tri1 1 2 devoe $end
$var wire 1 3 u1|u1|Mux2~0_combout $end
$var wire 1 4 u1|u1|Mux3~0_combout $end
$var wire 1 5 cin~combout $end
$var wire 1 6 u1|u1|Mux0~0_combout $end
$var wire 1 7 u1|u1|Mux1~0_combout $end
$var wire 1 8 u1|u2|Add0~1_cout $end
$var wire 1 9 u1|u2|Add0~3 $end
$var wire 1 : u1|u2|Add0~5 $end
$var wire 1 ; u1|u2|Add0~7 $end
$var wire 1 < u1|u2|Add0~9 $end
$var wire 1 = u1|u2|Add0~10_combout $end
$var wire 1 > s1~combout $end
$var wire 1 ? u1|u2|Add0~2_combout $end
$var wire 1 @ u3|salmux[0]~0_combout $end
$var wire 1 A u3|salmux[0]~1_combout $end
$var wire 1 B u1|u2|Add0~4_combout $end
$var wire 1 C u3|salmux[1]~2_combout $end
$var wire 1 D u3|salmux[1]~3_combout $end
$var wire 1 E u3|salmux[2]~4_combout $end
$var wire 1 F u1|u2|Add0~6_combout $end
$var wire 1 G u3|salmux[2]~5_combout $end
$var wire 1 H u1|u2|Add0~8_combout $end
$var wire 1 I u3|salmux[3]~6_combout $end
$var wire 1 J u3|salmux[3]~7_combout $end
$var wire 1 K u3|salmux[4]~8_combout $end
$var wire 1 L s~combout [1] $end
$var wire 1 M s~combout [0] $end
$var wire 1 N b~combout [3] $end
$var wire 1 O b~combout [2] $end
$var wire 1 P b~combout [1] $end
$var wire 1 Q b~combout [0] $end
$var wire 1 R a~combout [3] $end
$var wire 1 S a~combout [2] $end
$var wire 1 T a~combout [1] $end
$var wire 1 U a~combout [0] $end
$upscope $end
$upscope $end
$enddefinitions $end
#0
$dumpvars
b0 !
b0 "
0#
b0 $
0%
0&
0+
0*
0)
0(
0'
x,
0-
1.
x/
10
11
12
03
04
05
06
07
08
19
0:
1;
0<
0=
0>
0?
0@
0A
0B
0C
0D
0E
0F
0G
0H
0I
0J
0K
0M
0L
0Q
0P
0O
0N
0U
0T
0S
0R
$end
#500
1%
1>
0,
#1000
0%
0>
1,
#1500
1%
1>
0,
#2000
0%
0>
1,
#2500
b1000 "
b1100 "
b1110 "
b1111 "
b10 $
b11 $
1%
1M
1L
1Q
1P
1O
1N
1>
0,
1I
1E
1C
1@
17
16
14
13
1J
1G
1D
1A
1F
1H
1?
1B
1(
1)
1*
1+
#3000
0%
0>
1,
#3500
1%
1>
0,
#4000
0%
0>
1,
#4500
1%
1>
0,
#5000
b1000 !
b1100 !
b1110 !
b1111 !
b111 "
b11 "
b1 "
b0 "
b1 $
b0 $
0%
0M
0L
0Q
0P
0O
0N
1U
1T
1S
1R
0>
1,
0I
0E
0C
0@
07
06
04
03
09
0?
1:
0B
0;
0F
1<
0H
0J
0G
0D
0A
19
1?
1=
0:
1B
1A
1K
0(
0)
0*
0+
1&
1;
1F
1D
1+
1'
0<
1H
1G
1*
0=
1J
1)
0K
0&
1(
0'
#5500
1%
1>
0,
0J
0G
0D
0A
0(
0)
0*
0+
#6000
0%
0>
1,
1J
1G
1D
1A
1(
1)
1*
1+
#6500
1%
1>
0,
0J
0G
0D
0A
0(
0)
0*
0+
#7000
0%
0>
1,
1J
1G
1D
1A
1(
1)
1*
1+
#7500
b1000 "
b1100 "
b1110 "
b1111 "
b10 $
b11 $
1%
1M
1L
1Q
1P
1O
1N
1>
0,
17
16
14
13
0J
0G
0D
0A
0;
0F
1<
0H
09
0?
1:
0B
0(
0)
0*
0+
1H
1=
1B
1F
1&
#8000
0%
0>
1,
1K
1J
1G
1D
1'
1(
1)
1*
#8500
1%
1>
0,
0K
0J
0G
0D
0'
0(
0)
0*
#9000
0%
0>
1,
1K
1J
1G
1D
1'
1(
1)
1*
#9500
1%
1>
0,
0K
0J
0G
0D
0'
0(
0)
0*
