contador/simulation/qsim/contador3bits.msim.vcd
$comment
	File created using the following command:
		vcd file contador3bits.msim.vcd -direction
$end
$date
	Sun Sep 30 17:37:36 2018
$end
$version
	ModelSim Version 10.1d
$end
$timescale
	1ps
$end
$scope module contador3bits_vlg_vec_tst $end
$var reg 1 ! relog $end
$var reg 1 " reset $end
$var wire 1 # salcuenta [3] $end
$var wire 1 $ salcuenta [2] $end
$var wire 1 % salcuenta [1] $end
$var wire 1 & salcuenta [0] $end
$var wire 1 ' sampler $end
$scope module i1 $end
$var wire 1 ( gnd $end
$var wire 1 ) vcc $end
$var wire 1 * unknown $end
$var tri1 1 + devclrn $end
$var tri1 1 , devpor $end
$var tri1 1 - devoe $end
$var wire 1 . relog~combout $end
$var wire 1 / relog~clkctrl_outclk $end
$var wire 1 0 reset~combout $end
$var wire 1 1 q~0_combout $end
$var wire 1 2 q~1_combout $end
$var wire 1 3 q~2_combout $end
$var wire 1 4 Mux0~0_combout $end
$var wire 1 5 q~3_combout $end
$var wire 1 6 q [3] $end
$var wire 1 7 q [2] $end
$var wire 1 8 q [1] $end
$var wire 1 9 q [0] $end
$upscope $end
$upscope $end
$enddefinitions $end
#0
$dumpvars
0!
0"
0&
0%
0$
0#
x'
0(
1)
x*
1+
1,
1-
0.
0/
00
11
02
03
04
05
09
08
07
06
$end
#500
1!
1.
1/
0'
19
12
01
1&
#1000
0!
0.
0/
1'
#1500
1!
1.
1/
0'
18
09
11
1%
0&
#2000
0!
0.
0/
1'
#2500
1!
1.
1/
0'
19
13
02
01
1&
#3000
0!
0.
0/
1'
#3500
1!
1.
1/
0'
17
08
09
11
1$
0%
0&
#4000
0!
0.
0/
1'
#4500
1!
1.
1/
0'
19
12
01
1&
#5000
0!
0.
0/
1'
#5500
1!
1.
1/
0'
18
09
11
1%
0&
#6000
0!
0.
0/
1'
#6500
1!
1.
1/
0'
19
14
03
02
01
1&
15
#7000
0!
0.
0/
1'
#7500
1!
1.
1/
0'
16
07
08
09
11
1#
0$
0%
0&
#8000
0!
0.
0/
1'
#8500
1!
1.
1/
0'
19
12
01
1&
#9000
0!
0.
0/
1'
#9500
1!
1.
1/
0'
18
09
11
1%
0&
#10000
0!
0.
0/
1'
#10500
1!
1.
1/
0'
19
13
02
01
1&
#11000
0!
0.
0/
1'
#11500
1!
1.
1/
0'
17
08
09
11
1$
0%
0&
#12000
0!
0.
0/
1'
#12500
1!
1.
1/
0'
19
12
01
1&
#13000
0!
0.
0/
1'
#13500
1!
1.
1/
0'
18
09
11
1%
0&
#14000
0!
0.
0/
1'
#14500
1!
1.
1/
0'
19
04
03
02
01
1&
05
#15000
0!
0.
0/
1'
#15500
1!
1.
1/
0'
06
07
08
09
11
0#
0$
0%
0&
#16000
0!
0.
0/
1'
#16500
1!
1.
1/
0'
19
12
01
1&
#17000
0!
0.
0/
1'
#17500
1!
1.
1/
0'
18
09
11
1%
0&
#18000
0!
0.
0/
1'
#18500
1!
1.
1/
0'
19
13
02
01
1&
#19000
0!
0.
0/
1'
#19500
1!
1.
1/
0'
17
08
09
11
1$
0%
0&
